{
  "project_info": {
    "project_id": "birthdayreminder-1186",
    "project_number": "298961108343",
    "name": "BirthdayReminder"
  },
  "client": [
    {
      "client_info": {
        "mobilesdk_app_id": "1:298961108343:android:8613febf8ae6ee64",
        "client_id": "android:com.ppjava13v2.vera.myapplication",
        "client_type": 1,
        "android_client_info": {
          "package_name": "com.ppjava13v2.vera.myapplication"
        }
      },
      "oauth_client": [],
      "api_key": [],
      "services": {
        "analytics_service": {
          "status": 1
        },
        "cloud_messaging_service": {
          "status": 2,
          "apns_config": []
        },
        "appinvite_service": {
          "status": 1,
          "other_platform_oauth_client": []
        },
        "google_signin_service": {
          "status": 1
        },
        "ads_service": {
          "status": 1
        }
      }
    }
  ],
  "client_info": [],
  "ARTIFACT_VERSION": "1"
}